                                __                      ___
 /'\_/`\                       /\ \                    /\_ \
/\      \  __  __     __    ___\ \ \/'\      __    ___ \//\ \      __      ____     __   _ __
\ \ \__\ \/\ \/\ \  /'__`\ /'___\ \ , <    /'__`\/' _ `\ \ \ \   /'__`\   /',__\  /'__`\/\`'__\
 \ \ \_/\ \ \ \_\ \/\  __//\ \__/\ \ \\`\ /\  __//\ \/\ \ \_\ \_/\ \L\.\_/\__, `\/\  __/\ \ \/
  \ \_\\ \_\ \____/\ \____\ \____\\ \_\ \_\ \____\ \_\ \_\/\____\ \__/.\_\/\____/\ \____\\ \_\
   \/_/ \/_/\/___/  \/____/\/____/ \/_/\/_/\/____/\/_/\/_/\/____/\/__/\/_/\/___/  \/____/ \/_/

Version:             ${application.formatted-version}
Spring Boot Version: ${spring-boot.formatted-version}
